<svg xmlns="http://www.w3.org/2000/svg" width="33" height="33" viewBox="0 0 33 33">
  <path id="Cart_Icon" data-name="Cart Icon" class="cls-1" d="M695.769,74.219l4.124-12.378a2.063,2.063,0,0,0-1.3-2.61,2.006,2.006,0,0,0-.652-0.082V59.125h-25.9L671,56.338a2.063,2.063,0,1,0-3.863,1.449l6.187,16.5a2.064,2.064,0,0,0,1.932,1.339h18.561A2.063,2.063,0,0,0,695.769,74.219ZM676.68,71.5l-3.093-8.252h21.488L692.326,71.5H676.68Zm0.633,12.378a4.125,4.125,0,1,1-4.125-4.126A4.125,4.125,0,0,1,677.313,83.882Zm18.561,0a4.125,4.125,0,1,1-4.124-4.126A4.125,4.125,0,0,1,695.874,83.882Z" transform="translate(-667 -55)"/>
</svg>
